…
We will use the LendingClub data available in the parsnip package to
demonstrate how this function works.

``` r
class_data_tbl <- parsnip::lending_club %>%
  select(Class, funded_amnt:sub_grade, annual_inc, emp_length, revol_util)

class_data_tbl
```

    ## # A tibble: 9,857 x 8
    ##    Class funded_amnt term  int_rate sub_grade annual_inc emp_length
    ##    <fct>       <int> <fct>    <dbl> <fct>          <dbl> <fct>     
    ##  1 good        16100 term~    14.0  C4             35000 emp_5     
    ##  2 good        32000 term~    12.0  C1             72000 emp_ge_10 
    ##  3 good        10000 term~    16.3  D1             72000 emp_ge_10 
    ##  4 good        16800 term~    13.7  C3            101000 emp_lt_1  
    ##  5 good         3500 term~     7.39 A4             50100 emp_unk   
    ##  6 good        10000 term~    11.5  B5             32000 emp_lt_1  
    ##  7 good        11000 term~     5.32 A1             65000 emp_4     
    ##  8 good        15000 term~     9.16 B2            188000 emp_6     
    ##  9 good         6000 term~     9.8  B3             89000 emp_ge_10 
    ## 10 good        20000 term~    13.0  C2             48000 emp_ge_10 
    ## # ... with 9,847 more rows, and 1 more variable: revol_util <dbl>

``` r
split_obj <- initial_split(class_data_tbl, prop = 0.8, strata = "Class")
train_tbl <- training(split_obj)
test_tbl  <- testing(split_obj)


model_logit_obj <- logistic_reg(mode = "classification") %>%
  set_engine("glm") %>%
  fit(Class ~ ., data = train_tbl)

tidy(model_logit_obj)
```

    ## # A tibble: 51 x 5
    ##    term           estimate  std.error statistic  p.value
    ##    <chr>             <dbl>      <dbl>     <dbl>    <dbl>
    ##  1 (Intercept)  3.32       1.04           3.18  0.00147 
    ##  2 funded_amnt -0.00000390 0.00000680    -0.574 0.566   
    ##  3 termterm_60  0.434      0.128          3.40  0.000670
    ##  4 int_rate     0.364      0.158          2.30  0.0215  
    ##  5 sub_gradeA2 -0.168      1.17          -0.144 0.886   
    ##  6 sub_gradeA3 -1.12       0.954         -1.17  0.241   
    ##  7 sub_gradeA4 -0.365      1.20          -0.304 0.761   
    ##  8 sub_gradeA5 -2.19       0.807         -2.71  0.00673 
    ##  9 sub_gradeB1 -2.34       0.841         -2.78  0.00538 
    ## 10 sub_gradeB2 -2.30       0.938         -2.45  0.0143  
    ## # ... with 41 more rows
…
1.  The Truth

<!-- end list -->

``` r
truth_tbl <- test_tbl %>% 
  select(Class) %>% 
  set_names("truth")

truth_tbl
```

    ## # A tibble: 1,971 x 1
    ##    truth
    ##    <fct>
    ##  1 good 
    ##  2 good 
    ##  3 good 
    ##  4 good 
    ##  5 good 
    ##  6 good 
    ##  7 good 
    ##  8 good 
    ##  9 good 
    ## 10 good 
    ## # ... with 1,961 more rows

2.  The Predicted Probabilities

<!-- end list -->

``` r
probs_tbl <- model_logit_obj %>% 
  predict(new_data = test_tbl, type = "prob") %>% 
  set_names(str_remove_all(names(.), ".pred_"))

probs_tbl
```

    ## # A tibble: 1,971 x 2
    ##        bad  good
    ##      <dbl> <dbl>
    ##  1 0.0703  0.930
    ##  2 0.0709  0.929
    ##  3 0.1000  0.900
    ##  4 0.00710 0.993
    ##  5 0.00353 0.996
    ##  6 0.0890  0.911
    ##  7 0.161   0.839
    ##  8 0.0267  0.973
    ##  9 0.0118  0.988
    ## 10 0.0506  0.949
    ## # ... with 1,961 more rows
…
preds_tbl <- probs_tbl %>% 
  mutate(
    prediction = case_when(
      good >= threshold ~ "good",
      TRUE              ~ "bad"
    ) %>% factor(levels = levels)
  ) %>% 
  select(prediction)

preds_tbl
```

    ## # A tibble: 1,971 x 1
    ##    prediction
    ##    <fct>     
    ##  1 good      
    ##  2 good      
    ##  3 good      
    ##  4 good      
    ##  5 good      
    ##  6 good      
    ##  7 good      
    ##  8 good      
    ##  9 good      
    ## 10 good      
    ## # ... with 1,961 more rows

Can combine the previous together into the goal output tibble

``` r
output_tbl <- truth_tbl %>% 
  bind_cols(probs_tbl) %>% 
  bind_cols(preds_tbl)

output_tbl
```

    ## # A tibble: 1,971 x 4
    ##    truth     bad  good prediction
    ##    <fct>   <dbl> <dbl> <fct>     
    ##  1 good  0.0703  0.930 good      
    ##  2 good  0.0709  0.929 good      
    ##  3 good  0.1000  0.900 good      
    ##  4 good  0.00710 0.993 good      
    ##  5 good  0.00353 0.996 good      
    ##  6 good  0.0890  0.911 good      
    ##  7 good  0.161   0.839 good      
    ##  8 good  0.0267  0.973 good      
    ##  9 good  0.0118  0.988 good      
    ## 10 good  0.0506  0.949 good      
    ## # ... with 1,961 more rows

## predict\_binary() Function

The predict\_binary() function automates the aforementioned process

``` r
model_predictions_tbl <- model_logit_obj %>% 
  predict_binary(new_data = test_tbl, response = Class, positive = "good")

model_predictions_tbl
```

    ## # A tibble: 1,971 x 4
    ##    truth     bad  good prediction
    ##    <fct>   <dbl> <dbl> <fct>     
    ##  1 good  0.0703  0.930 good      
    ##  2 good  0.0709  0.929 good      
    ##  3 good  0.1000  0.900 good      
    ##  4 good  0.00710 0.993 good      
    ##  5 good  0.00353 0.996 good      
    ##  6 good  0.0890  0.911 good      
    ##  7 good  0.161   0.839 good      
    ##  8 good  0.0267  0.973 good      
    ##  9 good  0.0118  0.988 good      
    ## 10 good  0.0506  0.949 good      
    ## # ... with 1,961 more rows
…
``` r
model_predictions_tbl <- model_logit_obj %>% 
  predict_binary(new_data = test_tbl, response = Class, positive = "good", .thresh = 0.95, .verbose = TRUE)
```

    ## Truth column set to Class...
    ## Predicted probabilities calculated...
    ## Predicted response classes determined...
    ## Function completed successfully

``` r
model_predictions_tbl
```

    ## # A tibble: 1,971 x 4
    ##    truth     bad  good prediction
    ##    <fct>   <dbl> <dbl> <fct>     
    ##  1 good  0.0703  0.930 bad       
    ##  2 good  0.0709  0.929 bad       
    ##  3 good  0.1000  0.900 bad       
    ##  4 good  0.00710 0.993 good      
    ##  5 good  0.00353 0.996 good      
    ##  6 good  0.0890  0.911 bad       
    ##  7 good  0.161   0.839 bad       
    ##  8 good  0.0267  0.973 good      
    ##  9 good  0.0118  0.988 good      
    ## 10 good  0.0506  0.949 bad       
    ## # ... with 1,961 more rows
